U+1F9DB 129499 VAMPIRE
U+000A 10 
Grapheme cluster
	U+2639 9785 WHITE FROWNING FACE
	U+FE0F 65039 VARIATION SELECTOR-16
U+000A 10 
Grapheme cluster
	U+1F935 129333 MAN IN TUXEDO
	U+1F3FD 127997 EMOJI MODIFIER FITZPATRICK TYPE-4
U+000A 10 
Grapheme cluster
	U+1F468 128104 MAN
	U+200D 8205 ZERO WIDTH JOINER
	U+1F3ED 127981 FACTORY
U+000A 10 
Grapheme cluster
	U+1F1E6 127462 REGIONAL INDICATOR SYMBOL LETTER A
	U+1F1F1 127473 REGIONAL INDICATOR SYMBOL LETTER L
U+000A 10 
Grapheme cluster
	U+1F3F4 127988 WAVING BLACK FLAG
	U+E0067 917607 TAG LATIN SMALL LETTER G
	U+E0062 917602 TAG LATIN SMALL LETTER B
	U+E0073 917619 TAG LATIN SMALL LETTER S
	U+E0063 917603 TAG LATIN SMALL LETTER C
	U+E0074 917620 TAG LATIN SMALL LETTER T
	U+E007F 917631 CANCEL TAG
U+000A 10 
Grapheme cluster
	U+002A 42 ASTERISK
	U+FE0F 65039 VARIATION SELECTOR-16
	U+20E3 8419 COMBINING ENCLOSING KEYCAP
U+000A 10 
Grapheme cluster
	U+1F6B5 128693 MOUNTAIN BICYCLIST
	U+1F3FB 127995 EMOJI MODIFIER FITZPATRICK TYPE-1-2
	U+200D 8205 ZERO WIDTH JOINER
	U+2640 9792 FEMALE SIGN
	U+FE0F 65039 VARIATION SELECTOR-16
U+000A 10 
